{
  "Deploy": {
    "Project": {
      "Name": "umbraco 9 route hijacking workshop",
      "Alias": "umbraco-9-route-hijacking-workshop",
      "Id": "82fdf3ee-e1e3-4aa8-af41-2fe50b98b4eb",
      "Workspaces": [
        {
          "Id": "82a7f4c7-4a9a-4e94-9ee1-de0aa7d5c9bf",
          "Name": "Live",
          "Type": "live",
          "Url": "https://umbraco-9-route-hijacking-workshop.euwest01.umbraco.io"
        }
      ]
    },
    "Settings": {
      "ApiKey": "AE3D66653977CD92B288A9372BDC556A501D8CAF"
    }
  },
  "Identity": {
    "ClientId": "0297c0f6-83ad-4481-9ae2-07a3f5475333",
    "ClientSecret": "Q5~T526ixOHlj47lg7Mu7_.zN1fK.7ua.9",
    "EnvironmentId": "82a7f4c7-4a9a-4e94-9ee1-de0aa7d5c9bf",
    "LocalLoginRedirectUri": "https://redirect.identity.umbraco.com"
  }
}